Final Project Markdown
…
cv_all <- bind_rows(
  cv_arima_all(bryson_tourn$sg_putt,  "SG Putting"),
  cv_arima_all(bryson_tourn$sg_ott,   "SG Off-the-Tee"),
  cv_arima_all(bryson_tourn$sg_app,   "SG Approach"),
  cv_arima_all(bryson_tourn$sg_arg,   "SG Around-the-Green"),
  cv_arima_all(bryson_tourn$sg_total, "SG Total"),
  cv_arima_all(bryson_tourn$pos,      "Finishing Position")
)

cv_all

## # A tibble: 24 × 4
##    series_name    method      RMSE  MAPE
##    <chr>          <chr>      <dbl> <dbl>
##  1 SG Putting     Train-test 0.937 150. 
##  2 SG Putting     Rolling    0.897 Inf  
##  3 SG Putting     Expanding  0.915 Inf  
##  4 SG Putting     Blocked    0.927 Inf  
##  5 SG Off-the-Tee Train-test 0.486  30.2
##  6 SG Off-the-Tee Rolling    0.611 112. 
##  7 SG Off-the-Tee Expanding  0.589 104. 
##  8 SG Off-the-Tee Blocked    0.732 248. 
##  9 SG Approach    Train-test 0.706 215. 
## 10 SG Approach    Rolling    0.856 274. 
## # ℹ 14 more rows
…
) %>%
  dplyr::arrange(AIC)

# ---- print the table ----
aic_all

## # A tibble: 21 × 3
##    group                 model                                    AIC
##    <chr>                 <chr>                                  <dbl>
##  1 SG Putting univariate FARIMA (arfima)                       -59.9 
##  2 SG Putting univariate TAR m=3                               -46.7 
##  3 SG Putting univariate TAR m=2                               -42.9 
##  4 SG Putting univariate TAR m=2 delay=1                       -37.6 
##  5 SG Putting univariate EGARCH(1,1) t                           2.73
##  6 SG Putting univariate GARCH(1,1) normal                       2.79
##  7 SG Putting univariate GARCH(1,1) t                            2.82
##  8 ARIMAX                ARIMAX on sg_diff1 with xreg=sg_total 140.  
##  9 SG Putting univariate Drift (Arima 0,0,0 drift)             147.  
## 10 SG Putting univariate SARIMA (auto.arima on sg_diff1)       151.  
## # ℹ 11 more rows
…
